{
  "success": true,
  "time": "2017-10-21 13:17:55",
  "data": {
    "orders": [
      {
        "id": "24352",
        "is_preorder": 0,
        "is_hourly_order": 0,
        "is_corp_order": 0,
        "created_at": "2017-10-21 13:16:40",
        "done_at": null,
        "preorder_at": null,
        "points": [
          {
            "address": "Аэропорт Уфа (Аэропорт 56)",
            "name": "Аэропорт Уфа",
            "object_id": 12951,
            "house": null,
            "enter": null,
            "metatype": 200
          },
          {
            "address": "ул. Менделеева д.22",
            "name": "Менделеева",
            "object_id": 426,
            "house": "22",
            "enter": null,
            "metatype": 0
          }
        ],
        "cost": "265.00",
        "comment": "",
        "canceled": 0,
        "status_message": "",
        "status": 2,
        "coordinates": null
      },
      {
        "id": "5665",
        "is_preorder": 0,
        "is_hourly_order": 0,
        "is_corp_order": 0,
        "created_at": "2017-07-19 18:27:34",
        "done_at": null,
        "preorder_at": null,
        "points": [
          {
            "address": "Южный автовокзал (Рихарда Зорге 13)",
            "name": "Южный автовокзал",
            "object_id": 9631,
            "house": null,
            "enter": null,
            "metatype": 200
          },
          {
            "address": "ул. проспект Октября д.2",
            "name": "проспект Октября",
            "object_id": 629,
            "house": "2",
            "enter": null,
            "metatype": 0
          }
        ],
        "cost": "75.00",
        "comment": "",
        "canceled": 1,
        "status_message": "",
        "status": 102,
        "coordinates": null
      },
      {
        "id": "5664",
        "is_preorder": 0,
        "is_hourly_order": 0,
        "is_corp_order": 0,
        "created_at": "2017-07-19 18:21:24",
        "done_at": null,
        "preorder_at": null,
        "points": [
          {
            "address": "Аэропорт Уфа (Аэропорт 56)",
            "name": "Аэропорт Уфа",
            "object_id": 12951,
            "house": null,
            "enter": null,
            "metatype": 200
          },
          {
            "address": "ЖД Вокзал г. Уфа (Вокзальная площадь 1)",
            "name": "ЖД Вокзал г. Уфа",
            "object_id": 8850,
            "house": null,
            "enter": null,
            "metatype": 200
          }
        ],
        "cost": "305.00",
        "comment": "dkdhkfhkd kfj kjlkjldj ddkdkfkfkf fkfkfjkgjfk kjkjkjk dkdjldjlfjd ldjfljd lj ldjl jl jljljljldld''askjsks, dsskdkhfksdh sdkkshfkhds dksjdlkfjslkdjf slkdjflkjsdlkjf dfjldjldjg",
        "canceled": 1,
        "status_message": "",
        "status": 102,
        "coordinates": null
      },
      {
        "id": "5594",
        "is_preorder": 0,
        "is_hourly_order": 0,
        "is_corp_order": 0,
        "created_at": "2017-07-19 11:34:54",
        "done_at": null,
        "preorder_at": null,
        "points": [
          {
            "address": "ул. Северная (Князево) д.2",
            "name": "Северная (Князево)",
            "object_id": 1972,
            "house": "2",
            "enter": null,
            "metatype": 0
          },
          {
            "address": "ул. Южная (Чесноковка) д.2",
            "name": "Южная (Чесноковка)",
            "object_id": 1603,
            "house": "2",
            "enter": null,
            "metatype": 0
          }
        ],
        "cost": "445.00",
        "comment": "Не берите заказ, тестирование",
        "canceled": 1,
        "status_message": "",
        "status": 102,
        "coordinates": { "client": [54.456546, 34.6789679], "driver": [54.342342, 34.45345435] }
      }
    ],
    "status": 220
  }
}