{
  "success": true,
  "time": "2017-10-22 01:35:42",
  "data": {
    "objects": [
      {
        "id": 12669,
        "name": "ж/д ст. Спортивная (электропоезд)",
        "type": "вокзал",
        "metatype": 200,
        "address": "Индустриальное шоссе 118"
      },
      {
        "id": 13612,
        "name": "Речной порт",
        "type": "вокзал",
        "metatype": 200,
        "address": "Сафроновский проезд 4к2"
      },
      {
        "id": 14292,
        "name": "ж/д ст. Уршак",
        "type": "вокзал",
        "metatype": 200,
        "address": "Станция Уршак "
      },
      {
        "id": 11931,
        "name": "ж/д ст. Парковая",
        "type": "вокзал",
        "metatype": 200,
        "address": "Интернациональная 59"
      },
      {
        "id": 11382,
        "name": "ж/д ст. Санаторная",
        "type": "вокзал",
        "metatype": 200,
        "address": " "
      }
    ],
    "status": 220
  }
}